module modernc.org/ql

go 1.16

require (
	modernc.org/b v1.0.2
	modernc.org/db v1.0.4
	modernc.org/file v1.0.3
	modernc.org/golex v1.0.1
	modernc.org/internal v1.0.4
	modernc.org/lldb v1.0.4
	modernc.org/mathutil v1.4.1
	modernc.org/strutil v1.1.1
)
